using-pcr-functions • bladdr
…
We have a particular advantage because although the data are untidy, they are untidy in a very specific way. Reading in data is as simple as running pcr_tidy, which is given a path to the pcr .xls(x) file. If no path is given, an interactive file explorer window will appear for the user to choose the file.

dat <- pcr_tidy("../inst/extdata/untidy-pcr-example-2.xlsx")
#> New names:
#> * `` -> ...3
#> * `` -> ...4
#> * `` -> ...5
#> * `` -> ...6
#> * `` -> ...7
#> * ...
#> Warning in mask$eval_all_mutate(quo): NAs introduced by coercion
dat
#> # A tibble: 159 × 40
#>    well  well_position omit  sample_name target_name task    reporter quencher
#>    <chr> <chr>         <chr> <chr>       <chr>       <chr>   <chr>    <chr>   
#>  1 2     A2            FALSE UC3 PBS     CDH1        UNKNOWN FAM      NFQ-MGB 
#>  2 3     A3            FALSE UC3 PBS     CDH1        UNKNOWN FAM      NFQ-MGB 
#>  3 4     A4            FALSE UC3 Drug    CDH1        UNKNOWN FAM      NFQ-MGB 
#>  4 5     A5            FALSE UC3 Drug    CDH1        UNKNOWN FAM      NFQ-MGB 
#>  5 6     A6            FALSE UC3 Drug    CDH1        UNKNOWN FAM      NFQ-MGB 
#>  6 7     A7            FALSE T24 PBS     CDH1        UNKNOWN FAM      NFQ-MGB 
#>  7 8     A8            FALSE T24 PBS     CDH1        UNKNOWN FAM      NFQ-MGB 
#>  8 9     A9            FALSE T24 PBS     CDH1        UNKNOWN FAM      NFQ-MGB 
#>  9 10    A10           FALSE T24 Drug    CDH1        UNKNOWN FAM      NFQ-MGB 
#> 10 11    A11           FALSE T24 Drug    CDH1        UNKNOWN FAM      NFQ-MGB 
#> # … with 149 more rows, and 32 more variables: quantity <dbl>,
#> #   quantity_mean <dbl>, quantity_sd <dbl>, rq <dbl>, rq_min <dbl>,
#> #   rq_max <dbl>, ct <dbl>, ct_mean <dbl>, ct_sd <dbl>, delta_ct <chr>,
#> #   delta_ct_mean <chr>, delta_ct_sd <chr>, delta_ct_se <chr>,
#> #   delta_delta_ct <chr>, automatic_ct_threshold <chr>, ct_threshold <dbl>,
#> #   automatic_baseline <chr>, baseline_start <dbl>, baseline_end <dbl>,
#> #   comments <chr>, expfail <chr>, highsd <chr>, noamp <chr>, …

The typical format of PCR data is woefully non-rectangular. pcr_tidy fixes this by skipping to the good bits, but also pulling out useful metadata supplied in the header and footer of the dataset - like the last few columns:

select(dat, plate_type:ref_samp)
#> # A tibble: 159 × 2
#>    plate_type     ref_samp  
#>    <chr>          <chr>     
#>  1 384-Well Block RT112 Drug
#>  2 384-Well Block RT112 Drug
#>  3 384-Well Block RT112 Drug
#>  4 384-Well Block RT112 Drug
#>  5 384-Well Block RT112 Drug
#>  6 384-Well Block RT112 Drug
#>  7 384-Well Block RT112 Drug
#>  8 384-Well Block RT112 Drug
#>  9 384-Well Block RT112 Drug
#> 10 384-Well Block RT112 Drug
#> # … with 149 more rows
…
